module github.com/go-dockly/pkg

go 1.13

require (
	github.com/go-chi/chi v4.1.1+incompatible
	github.com/imdario/mergo v0.3.9
	github.com/pelletier/go-toml v1.7.0
	github.com/pkg/errors v0.9.1
	github.com/sirupsen/logrus v1.6.0
	github.com/stretchr/testify v1.5.1
	gopkg.in/h2non/gock.v1 v1.0.15
)
